^C:\USERS\ADMINISTRATOR\DESKTOP\CS160\LAB5\PROJECT\DEBUG\BMP.OBJ|C:\USERS\ADMINISTRATOR\DESKTOP\CS160\LAB5\PROJECT\DEBUG\CAMERA.OBJ|C:\USERS\ADMINISTRATOR\DESKTOP\CS160\LAB5\PROJECT\DEBUG\CGDYNAMICOBJECT.OBJ|C:\USERS\ADMINISTRATOR\DESKTOP\CS160\LAB5\PROJECT\DEBUG\CGFACETREE.OBJ|C:\USERS\ADMINISTRATOR\DESKTOP\CS160\LAB5\PROJECT\DEBUG\CGFACETREEITERATOR.OBJ|C:\USERS\ADMINISTRATOR\DESKTOP\CS160\LAB5\PROJECT\DEBUG\CGOBJECT.OBJ|C:\USERS\ADMINISTRATOR\DESKTOP\CS160\LAB5\PROJECT\DEBUG\CGPATH.OBJ|C:\USERS\ADMINISTRATOR\DESKTOP\CS160\LAB5\PROJECT\DEBUG\CGPORTAL.OBJ|C:\USERS\ADMINISTRATOR\DESKTOP\CS160\LAB5\PROJECT\DEBUG\CGROOM.OBJ|C:\USERS\ADMINISTRATOR\DESKTOP\CS160\LAB5\PROJECT\DEBUG\CGTEXTURE.OBJ|C:\USERS\ADMINISTRATOR\DESKTOP\CS160\LAB5\PROJECT\DEBUG\CGWORLD.OBJ|C:\USERS\ADMINISTRATOR\DESKTOP\CS160\LAB5\PROJECT\DEBUG\COLLISIONTESTER.OBJ|C:\USERS\ADMINISTRATOR\DESKTOP\CS160\LAB5\PROJECT\DEBUG\DATAFILE.OBJ|C:\USERS\ADMINISTRATOR\DESKTOP\CS160\LAB5\PROJECT\DEBUG\FRUSTUM.OBJ|C:\USERS\ADMINISTRATOR\DESKTOP\CS160\LAB5\PROJECT\DEBUG\GLTEXTURE.OBJ|C:\USERS\ADMINISTRATOR\DESKTOP\CS160\LAB5\PROJECT\DEBUG\GLUTIL.OBJ|C:\USERS\ADMINISTRATOR\DESKTOP\CS160\LAB5\PROJECT\DEBUG\INPUTMANAGER.OBJ|C:\USERS\ADMINISTRATOR\DESKTOP\CS160\LAB5\PROJECT\DEBUG\MAIN.OBJ|C:\USERS\ADMINISTRATOR\DESKTOP\CS160\LAB5\PROJECT\DEBUG\MODEL_3DS.OBJ|C:\USERS\ADMINISTRATOR\DESKTOP\CS160\LAB5\PROJECT\DEBUG\PORTALENGINE.OBJ|C:\USERS\ADMINISTRATOR\DESKTOP\CS160\LAB5\PROJECT\DEBUG\PROJECT.EXE.EMBED.MANIFEST.RES|C:\USERS\ADMINISTRATOR\DESKTOP\CS160\LAB5\PROJECT\DEBUG\SEAHORSE.OBJ|C:\USERS\ADMINISTRATOR\DESKTOP\CS160\LAB5\PROJECT\DEBUG\SKYMAP.OBJ|C:\USERS\ADMINISTRATOR\DESKTOP\CS160\LAB5\PROJECT\DEBUG\STATISTICS.OBJ
C:\PROGRAM FILES\MICROSOFT VISUAL STUDIO 10.0\VC\LIB\GLUT32.LIB
C:\PROGRAM FILES\MICROSOFT SDKS\WINDOWS\V7.0A\LIB\GLU32.LIB
C:\PROGRAM FILES\MICROSOFT SDKS\WINDOWS\V7.0A\LIB\OPENGL32.LIB
C:\PROGRAM FILES\MICROSOFT SDKS\WINDOWS\V7.0A\LIB\KERNEL32.LIB
C:\PROGRAM FILES\MICROSOFT SDKS\WINDOWS\V7.0A\LIB\USER32.LIB
C:\PROGRAM FILES\MICROSOFT SDKS\WINDOWS\V7.0A\LIB\GDI32.LIB
C:\PROGRAM FILES\MICROSOFT SDKS\WINDOWS\V7.0A\LIB\WINSPOOL.LIB
C:\PROGRAM FILES\MICROSOFT SDKS\WINDOWS\V7.0A\LIB\COMDLG32.LIB
C:\PROGRAM FILES\MICROSOFT SDKS\WINDOWS\V7.0A\LIB\ADVAPI32.LIB
C:\PROGRAM FILES\MICROSOFT SDKS\WINDOWS\V7.0A\LIB\SHELL32.LIB
C:\PROGRAM FILES\MICROSOFT SDKS\WINDOWS\V7.0A\LIB\OLE32.LIB
C:\PROGRAM FILES\MICROSOFT SDKS\WINDOWS\V7.0A\LIB\OLEAUT32.LIB
C:\PROGRAM FILES\MICROSOFT SDKS\WINDOWS\V7.0A\LIB\UUID.LIB
C:\PROGRAM FILES\MICROSOFT SDKS\WINDOWS\V7.0A\LIB\ODBC32.LIB
C:\PROGRAM FILES\MICROSOFT SDKS\WINDOWS\V7.0A\LIB\ODBCCP32.LIB
C:\USERS\ADMINISTRATOR\DESKTOP\CS160\LAB5\PROJECT\DEBUG\PROJECT.EXE.EMBED.MANIFEST.RES
C:\USERS\ADMINISTRATOR\DESKTOP\CS160\LAB5\PROJECT\DEBUG\BMP.OBJ
C:\USERS\ADMINISTRATOR\DESKTOP\CS160\LAB5\PROJECT\DEBUG\GLTEXTURE.OBJ
C:\USERS\ADMINISTRATOR\DESKTOP\CS160\LAB5\PROJECT\DEBUG\MODEL_3DS.OBJ
C:\USERS\ADMINISTRATOR\DESKTOP\CS160\LAB5\PROJECT\DEBUG\CAMERA.OBJ
C:\USERS\ADMINISTRATOR\DESKTOP\CS160\LAB5\PROJECT\DEBUG\CGDYNAMICOBJECT.OBJ
C:\USERS\ADMINISTRATOR\DESKTOP\CS160\LAB5\PROJECT\DEBUG\CGFACETREE.OBJ
C:\USERS\ADMINISTRATOR\DESKTOP\CS160\LAB5\PROJECT\DEBUG\CGFACETREEITERATOR.OBJ
C:\USERS\ADMINISTRATOR\DESKTOP\CS160\LAB5\PROJECT\DEBUG\CGOBJECT.OBJ
C:\USERS\ADMINISTRATOR\DESKTOP\CS160\LAB5\PROJECT\DEBUG\CGPATH.OBJ
C:\USERS\ADMINISTRATOR\DESKTOP\CS160\LAB5\PROJECT\DEBUG\CGPORTAL.OBJ
C:\USERS\ADMINISTRATOR\DESKTOP\CS160\LAB5\PROJECT\DEBUG\CGROOM.OBJ
C:\USERS\ADMINISTRATOR\DESKTOP\CS160\LAB5\PROJECT\DEBUG\CGTEXTURE.OBJ
C:\USERS\ADMINISTRATOR\DESKTOP\CS160\LAB5\PROJECT\DEBUG\CGWORLD.OBJ
C:\USERS\ADMINISTRATOR\DESKTOP\CS160\LAB5\PROJECT\DEBUG\COLLISIONTESTER.OBJ
C:\USERS\ADMINISTRATOR\DESKTOP\CS160\LAB5\PROJECT\DEBUG\DATAFILE.OBJ
C:\USERS\ADMINISTRATOR\DESKTOP\CS160\LAB5\PROJECT\DEBUG\FRUSTUM.OBJ
C:\USERS\ADMINISTRATOR\DESKTOP\CS160\LAB5\PROJECT\DEBUG\GLUTIL.OBJ
C:\USERS\ADMINISTRATOR\DESKTOP\CS160\LAB5\PROJECT\DEBUG\INPUTMANAGER.OBJ
C:\USERS\ADMINISTRATOR\DESKTOP\CS160\LAB5\PROJECT\DEBUG\MAIN.OBJ
C:\USERS\ADMINISTRATOR\DESKTOP\CS160\LAB5\PROJECT\DEBUG\PORTALENGINE.OBJ
C:\USERS\ADMINISTRATOR\DESKTOP\CS160\LAB5\PROJECT\DEBUG\SEAHORSE.OBJ
C:\USERS\ADMINISTRATOR\DESKTOP\CS160\LAB5\PROJECT\DEBUG\SKYMAP.OBJ
C:\USERS\ADMINISTRATOR\DESKTOP\CS160\LAB5\PROJECT\DEBUG\STATISTICS.OBJ
C:\USERS\ADMINISTRATOR\DESKTOP\CS160\LAB5\BIN\PROJECT.EXE
C:\USERS\ADMINISTRATOR\DESKTOP\CS160\LAB5\PROJECT\DEBUG\PROJECT.PDB
C:\WINDOWS\GLOBALIZATION\SORTING\SORTDEFAULT.NLS
C:\PROGRAM FILES\MICROSOFT VISUAL STUDIO 10.0\VC\LIB\LIBCMTD.LIB
C:\PROGRAM FILES\MICROSOFT VISUAL STUDIO 10.0\VC\LIB\OLDNAMES.LIB
C:\PROGRAM FILES\MICROSOFT VISUAL STUDIO 10.0\VC\LIB\LIBCPMTD.LIB
C:\PROGRAM FILES\MICROSOFT SDKS\WINDOWS\V7.0A\LIB\WINMM.LIB
